[
{
  "description": "rmlint json-dump of lint files",
  "cwd": "/home/ska/panos/dito/dito/findfqgz/",
  "args": "rmlint -x --hardlinked -t 8",
  "version": "2.9.0",
  "rev": "unknown",
  "progress": 0,
  "checksum_type": "blake2b"
}, {
  "id": 725530061,
  "type": "emptyfile",
  "progress": 0,
  "path": "/home/ska/panos/dito/dito/findfqgz/removethispliz.txt",
  "size": 0,
  "depth": 1,
  "inode": 420333946,
  "disk_id": 64771,
  "is_original": false,
  "mtime": 1590954295.97662
}, {
  "aborted": false,
  "progress": 100,
  "total_files": 7,
  "ignored_files": 0,
  "ignored_folders": 0,
  "duplicates": 0,
  "duplicate_sets": 0,
  "total_lint_size": 0
}]
